{
  "tasks": [
    {
      "text": "Cami?",
      "day": "29/03/2022 13:00",
      "reminder": true,
      "id": 5
    },
    {
      "text": "asd",
      "day": "asd",
      "reminder": false,
      "id": 6
    },
    {
      "text": "f5",
      "day": "f52",
      "reminder": false,
      "id": 7
    },
    {
      "text": "12312321",
      "day": "123123123",
      "reminder": true,
      "id": 8
    },
    {
      "text": " Hola",
      "day": "hola",
      "reminder": true,
      "id": 9
    },
    {
      "text": "sdad",
      "day": "2022-03-07",
      "reminder": false,
      "id": 10
    },
    {
      "text": "adada",
      "day": "2022-03-10",
      "reminder": false,
      "id": 11
    }
  ]
}